…
nrow(edades)

## [1] NA

Para traer esta columna a nuestro RAM necesitamos usar la función collect, recomiendo utilizar esta función siempre, para asegurarnos que estamos trabajando con objetos completos y no con conexiones

edades<-collect(edades)

nrow(edades)

## [1] 17574003

edades

## # A tibble: 17,574,003 x 1
##      P09
##    <int>
##  1    73
##  2    78
##  3    78
##  4    52
##  5    44
##  6    39
##  7    35
##  8    13
##  9    12
## 10    65
## # ... with 17,573,993 more rows
…
